﻿  FntasticTest1.cpp
C:\Users\Evgen\source\repos\FntasticTest1\FntasticTest1\FntasticTest1.cpp(15,23): warning C4018: '<': signed/unsigned mismatch
C:\Users\Evgen\source\repos\FntasticTest1\FntasticTest1\FntasticTest1.cpp(18,27): warning C4018: '<': signed/unsigned mismatch
  FntasticTest1.vcxproj -> C:\Users\Evgen\source\repos\FntasticTest1\Debug\FntasticTest1.exe
